{
    "extends": "../../tslint.json",
    "rules": {
        "directive-selector": [
            true,
            "attribute",
            "sqtm",
            "camelCase"
        ],
        "component-selector": [
            true,
            "element",
            "sqtm-app",
            "kebab-case"
        ],
        "import-blacklist": [
            true,
            ["(..\\/)+sqtm-core.+"],
            ["(..\\/)+cypress.+"],
            ["sqtm-core/.+"],
            ["cypress/.+"]
        ]
    }
}
