{
  "baseUrl": "http://localhost:4200/squash",
  "integrationFolder": "cypress/integration/scenarios/back-mocked",
  "env": {
    "backend": "mocked",
    "apiBaseUrl": "squash/backend",
    "appBaseUrl": "/squash"
  },
  "video": false,
  "projectId": "uc8ymm"
}
