{
	"$schema": "http://json-schema.org/draft-04/schema#",
	"type": "object",
	"properties": {
		"id": {
			"type": "string"
		},
		"children": {
			"type": "array",
			"items": {}
		},
		"state": {
			"type": "string"
		},
		"data": {
			"type": "object",
			"properties": {
				"ITERATION_ID": {
					"type": "integer"
				},
				"NAME": {
					"type": "string"
				},
				"REFERENCE": {
					"type": "string"
				},
				"projectId": {
					"type": "integer"
				},
				"CHILD_COUNT": {
					"type": "integer"
				}
			},
			"required": [
				"ITERATION_ID",
				"NAME",
				"REFERENCE",
				"projectId",
				"CHILD_COUNT"
			]
		},
		"projectId": {
			"type": "integer"
		}
	},
	"required": [
		"id",
		"children",
		"state",
		"data",
		"projectId"
	]
}
