<svg width="20" height="30" xmlns="http://www.w3.org/2000/svg" id="vertical-line">
  <line x1="10" x2="10" y1="0" y2="30" stroke="lightgrey" fill="transparent" stroke-width="1"/>
  <line x1="10" x2="20" y1="15" y2="15" stroke="lightgrey" fill="transparent" stroke-width="1"/>
</svg>
