<?xml version="1.0" encoding="utf-8"?>
<!-- Generator: Adobe Illustrator 23.0.3, SVG Export Plug-In . SVG Version: 6.00 Build 0)  -->
<svg version="1.1" id="Logo_Couleur_1_" xmlns="http://www.w3.org/2000/svg" xmlns:xlink="http://www.w3.org/1999/xlink" x="0px"
	 y="0px" viewBox="-54.8 133.8 841.9 595.3" style="enable-background:new -54.8 133.8 841.9 595.3;" xml:space="preserve">
<style type="text/css">
	.st0{fill:#1C5B8D;}
	.st1{fill:#AAC5DE;}
	.st2{display:none;}
	.st3{display:inline;}
	.st4{font-family:'Calibri-Bold';}
	.st5{font-size:55px;}
	.st6{font-size:37px;}
	.st7{letter-spacing:11;}
	.st8{letter-spacing:5;}
	.st9{display:inline;fill:#5788BE;}
	.st10{fill:#5788BE;}
</style>
<g id="Logo_Couleur">
	<g id="Squ-sh_copy_2">
		<g id="path3749_2_">
			<path class="st0" d="M206.8,406.1c1.2-4-1.8-4-8-4.1c-6.2,0-10.4,0-11.8,4.4c-1,3.3,0.2,3.5,10.3,3.8
				c11.3,0.4,21.7-0.2,18.3,10.8c-2.8,9.1-13.4,10-25.7,10c-13.2,0-22.1,0-18.7-11l11.6,0c-1.3,4.9,0.2,5.5,8.8,5.5
				c6.9,0,11,0.1,12.4-4.5c0.9-3,1.1-4.4-10.6-4.6c-17.8-0.2-20.5-1.9-17.9-10.5c2.8-9.2,12.5-9.4,25-9.4c9.5,0,20.8,0.2,18,9.6
				L206.8,406.1z"/>
		</g>
		<g>
			<g>
				<path class="st0" d="M261,396.5l-1.1,5.6l-0.4,0c-1.6-4.4-6.7-5.5-13.5-5.5c-18,0-21,7.9-24.2,18.2c-3,9.9-3,16.2,13.6,16.3
					c5.9,0,12.3-0.7,16.1-4.9l0.5,0l-5.8,19.1l11.6,0l14.8-48.7L261,396.5z M256.1,412.9c-2.5,8-3.4,12.1-15.3,12
					c-10.6,0-9-4.4-6.7-12.1c2.6-8.5,5.4-10.1,13.4-10.1C257.6,402.8,258.3,405.7,256.1,412.9z"/>
			</g>
		</g>
		<g id="path3753_1_">
			<path class="st0" d="M303.5,430.7l1.6-5.2l-0.4,0c-4.1,4.5-10.4,5.6-17.1,5.6c-9.7,0-15.5-2.3-13.3-9.7l7.5-24.9l11.6,0
				l-6.5,21.7c-1.5,4.8-1.4,6.7,6.1,6.7c9,0,12.6-2.6,14.4-8.4l5.9-19.9l11.6,0l-10.3,34.2L303.5,430.7z"/>
		</g>
		<g id="path3755_1_">
			<path class="st0" d="M451.4,382.3l-11.6,0l-14.9,48.6l11.7,0l0.3-0.9l0,0l6.1-19.9c1.8-5.8,5.5-8.5,14.4-8.4
				c7.5,0,7.6,1.9,6.1,6.7l-6.5,22.5l11.6,0l7.5-25.7c2.2-7.4-3.6-9.7-13.3-9.7c-6.7,0-13,1.1-17.1,5.6h0L451.4,382.3z"/>
		</g>
		<g id="path3757_1_">
			<path class="st0" d="M411.4,406.1c1.3-4-1.8-4.1-8-4.2c-6.2-0.1-10.4-0.2-11.9,4.3c-1.1,3.3,0.2,3.5,10.3,3.9
				c11.3,0.6,21.7,0.1,18.2,11c-2.9,9.1-13.5,9.8-25.8,9.6c-13.2-0.2-22.1-0.3-18.6-11.3l11.6,0.2c-1.4,4.9,0.1,5.5,8.7,5.6
				c6.9,0.1,11,0.3,12.4-4.3c0.9-2.9,1.1-4.4-10.6-4.7c-17.8-0.5-20.5-2.2-17.7-10.7c2.9-9.2,12.6-9.3,25.1-9.1
				c9.5,0.1,20.8,0.4,17.8,9.8L411.4,406.1z"/>
		</g>
		<g>
			<g>
				<path class="st0" d="M356.9,426.2l-0.3,0c-3.6,4.6-10.8,4.8-16.5,4.9c-11.1,0.2-17.8-1.3-15.1-10.6c2.3-8.2,9.1-10.6,21.3-10.8
					c6-0.1,11.8-0.1,13.5,3.7l0.4,0l1.3-4.4c1.6-5.5,1.5-7.5-8.3-7.3c-5.1,0.1-9.3,0.5-10.6,4.9l-11.7,0.2
					c2.8-9.9,12.7-10.5,23.9-10.7c15.6-0.3,21.7,1.3,18.4,12.8l-6.1,21.4l-11.7,0.2L356.9,426.2z M336.7,420.3
					c-1.4,4.8,1.3,5.2,9.2,5.1c6.2-0.1,10.9-0.6,12.3-5.4c1.4-4.7-3.6-4.8-9.4-4.7C342.8,415.4,338.1,415.5,336.7,420.3z"/>
			</g>
		</g>
	</g>
	<g id="Vague_copy_2">
		<g>
			<path class="st1" d="M324,466.7c9,0,24.4,1.1,33.4,1c7.3-0.1,14.5-0.4,21.8-0.8c32-2,63.6-6.7,93.7-14c14-3.4,27.6-7.4,40.7-12.2
				c10.7-3.9,21.2-8.4,30.6-13.9c7-4.1,13.7-8.7,18.2-14.6c3.2-4.2,5.1-9.1,3.3-14.1c-1-2.6-2.8-4.9-5.2-6.9
				c-5-4.2-11.9-6.9-18.7-8.9c-9.4-2.8-19.4-4.4-29.2-5.4c-6.1-0.6-12.3-1.1-18.4-1.4c-3.9-0.2-7.9-0.3-11.9-0.4
				c-14.6-0.3-29.2-0.4-43.8-0.4l14.3,1.2c10.2,0.7,15.3,1.3,25.4,3.4c8,1.6,16.2,3.9,23.2,7.5c5.1,2.7,9.7,6.3,11.3,10.9
				c0.2,0.5,0.4,1.1,0.5,1.6c1.1,5.2-1.6,10.1-5.2,14.2c-5.2,5.8-12.3,10.5-19.8,14.5c-9.9,5.4-20.8,9.9-32,13.8
				c-13.5,4.7-27.5,8.6-41.8,11.9c-30.1,6.9-58.8,11.2-90.6,12.8L324,466.7z"/>
		</g>
	</g>
</g>
<g id="Modules">
	<g id="Construction" class="st2">
		<g id="Fond_1_" class="st3">
			<path class="st1" d="M265.5,493c0,3.9-3.1,7-7,7H179c-3.9,0-7-3.1-7-7v-34c0-3.9,3.1-7,7-7h79.5c3.9,0,7,3.1,7,7V493z"/>
		</g>
		<g id="Data" class="st3">
			<text transform="matrix(1 0 0 1 176.4587 493.1433)"><tspan x="0" y="0" class="st4 st5">D</tspan><tspan x="34.7" y="-1" class="st4 st6">ata</tspan></text>
		</g>
		<g id="SC" class="st3">
			<text transform="matrix(1 0 0 1 185.9192 493.1433)" class="st4 st5 st7">SC</text>
		</g>
		<g id="AT" class="st3">
			<text transform="matrix(1 0 0 1 183.1931 493.1433)" class="st4 st5 st7">TA</text>
		</g>
		<g id="AT_-_copie" class="st3">
			<text transform="matrix(1 0 0 1 187.2351 493.1433)" class="st4 st5 st7">TF</text>
		</g>
		<g id="TM" class="st3">
			<text transform="matrix(1 0 0 1 178.5715 493.1433)" class="st4 st5 st8">TM</text>
		</g>
	</g>
	<g id="Data_copy" class="st2">
		<path class="st9" d="M219.4,484.8c-0.5,0.1-0.9,0.3-1.3,0.5c-0.3,0.2-0.6,0.5-0.7,0.8c-0.2,0.3-0.2,0.7-0.2,1.1
			c0,0.7,0.2,1.2,0.6,1.6c0.4,0.4,1,0.6,1.8,0.6c0.6,0,1.2-0.2,1.8-0.5c0.5-0.3,1.1-0.8,1.6-1.4v-2.7h-1.7
			C220.6,484.7,219.9,484.7,219.4,484.8z M249.8,484.8c-0.5,0.1-0.9,0.3-1.3,0.5c-0.3,0.2-0.6,0.5-0.7,0.8c-0.2,0.3-0.2,0.7-0.2,1.1
			c0,0.7,0.2,1.2,0.6,1.6c0.4,0.4,1,0.6,1.8,0.6c0.6,0,1.2-0.2,1.8-0.5c0.5-0.3,1.1-0.8,1.6-1.4v-2.7h-1.7
			C250.9,484.7,250.3,484.7,249.8,484.8z M199.7,467.2c-0.9-1-1.9-1.8-3.3-2.4c-1.3-0.6-3.1-0.9-5.3-0.9h-3.6v23.6h3.7
			c1.9,0,3.6-0.3,4.9-0.8c1.3-0.5,2.4-1.3,3.3-2.3c0.9-1,1.5-2.3,2-3.8c0.4-1.5,0.7-3.3,0.7-5.3c0-1.6-0.2-3.2-0.6-4.6
			C201.2,469.5,200.6,468.3,199.7,467.2z M258.5,452H179c-3.9,0-7,3.1-7,7v34c0,3.9,3.1,7,7,7h79.5c3.9,0,7-3.1,7-7v-34
			C265.5,455.2,262.3,452,258.5,452z M208.2,483.4c-0.8,2.3-2,4.1-3.6,5.5c-1.6,1.4-3.5,2.5-5.7,3.2c-2.2,0.7-4.9,1-8,1h-8.3
			c-0.6,0-1.1-0.2-1.5-0.5c-0.4-0.3-0.6-0.9-0.6-1.7v-30.3c0-0.8,0.2-1.4,0.6-1.7c0.4-0.3,0.9-0.5,1.5-0.5h8.9
			c3.1,0,5.7,0.4,7.9,1.1c2.2,0.7,4,1.8,5.5,3.2c1.5,1.4,2.6,3.2,3.4,5.3c0.8,2.1,1.2,4.5,1.2,7.3
			C209.5,478.4,209.1,481.2,208.2,483.4z M227.5,491.6c0,0.2-0.1,0.3-0.2,0.4c-0.1,0.1-0.3,0.2-0.6,0.2c-0.3,0-0.6,0.1-1.1,0.1
			c-0.5,0-0.9,0-1.2-0.1c-0.2,0-0.4-0.1-0.5-0.2c-0.1-0.1-0.2-0.2-0.2-0.4v-1.3c-0.7,0.7-1.4,1.3-2.3,1.7c-0.8,0.4-1.8,0.6-2.8,0.6
			c-0.9,0-1.6-0.1-2.4-0.3c-0.7-0.2-1.3-0.6-1.9-1c-0.5-0.4-0.9-1-1.2-1.6c-0.3-0.7-0.4-1.4-0.4-2.3c0-0.9,0.2-1.8,0.6-2.4
			c0.4-0.7,0.9-1.3,1.6-1.7c0.7-0.5,1.6-0.8,2.7-1c1.1-0.2,2.3-0.3,3.8-0.3h1.6v-1c0-0.5-0.1-0.9-0.2-1.3c-0.1-0.4-0.3-0.7-0.5-0.9
			c-0.2-0.3-0.5-0.4-0.9-0.6c-0.4-0.1-0.9-0.2-1.5-0.2c-0.8,0-1.4,0.1-2,0.3c-0.6,0.2-1.1,0.4-1.6,0.6c-0.5,0.2-0.8,0.4-1.1,0.6
			c-0.3,0.2-0.6,0.3-0.8,0.3c-0.1,0-0.3,0-0.4-0.1c-0.1-0.1-0.2-0.2-0.3-0.4c-0.1-0.2-0.1-0.3-0.2-0.6c0-0.2-0.1-0.5-0.1-0.8
			c0-0.4,0-0.7,0.1-0.9c0.1-0.2,0.2-0.4,0.3-0.6c0.2-0.2,0.5-0.4,0.9-0.6c0.4-0.2,0.9-0.4,1.5-0.6c0.6-0.2,1.2-0.3,1.9-0.4
			c0.7-0.1,1.4-0.2,2.1-0.2c1.3,0,2.3,0.1,3.2,0.4c0.9,0.2,1.6,0.6,2.2,1.1c0.6,0.5,1,1.2,1.3,2c0.3,0.8,0.4,1.8,0.4,2.9V491.6z
			 M237.4,488c0.3,0.4,0.8,0.7,1.5,0.7c0.2,0,0.5,0,0.7-0.1c0.2,0,0.4-0.1,0.5-0.1c0.2-0.1,0.3-0.1,0.4-0.1c0.1,0,0.2-0.1,0.3-0.1
			c0.1,0,0.1,0,0.2,0.1c0.1,0,0.1,0.1,0.2,0.3c0,0.1,0.1,0.3,0.1,0.5c0,0.2,0,0.5,0,0.8c0,0.5,0,0.9-0.1,1.2
			c-0.1,0.3-0.2,0.5-0.3,0.6c-0.1,0.1-0.3,0.2-0.5,0.3c-0.2,0.1-0.5,0.2-0.7,0.2c-0.3,0.1-0.6,0.1-0.9,0.2c-0.3,0-0.7,0.1-1,0.1
			c-0.9,0-1.7-0.1-2.3-0.3c-0.7-0.2-1.2-0.6-1.6-1.1c-0.4-0.5-0.8-1.1-1-1.8c-0.2-0.7-0.3-1.6-0.3-2.6v-8.3h-1.9
			c-0.2,0-0.4-0.1-0.5-0.4c-0.1-0.3-0.2-0.8-0.2-1.4c0-0.3,0-0.6,0-0.9c0-0.2,0.1-0.4,0.1-0.6c0.1-0.1,0.1-0.2,0.2-0.3
			c0.1-0.1,0.2-0.1,0.3-0.1h1.9v-3.6c0-0.1,0-0.2,0.1-0.3c0.1-0.1,0.2-0.2,0.4-0.2c0.2-0.1,0.4-0.1,0.7-0.1c0.3,0,0.7,0,1.1,0
			c0.4,0,0.8,0,1.1,0c0.3,0,0.5,0.1,0.7,0.1c0.2,0.1,0.3,0.1,0.4,0.2c0.1,0.1,0.1,0.2,0.1,0.3v3.6h3.5c0.1,0,0.2,0,0.3,0.1
			c0.1,0.1,0.2,0.2,0.2,0.3c0.1,0.1,0.1,0.3,0.1,0.6c0,0.2,0,0.5,0,0.9c0,0.7-0.1,1.1-0.2,1.4c-0.1,0.3-0.3,0.4-0.5,0.4H237v7.6
			C237,486.9,237.1,487.6,237.4,488z M257.9,491.6c0,0.2-0.1,0.3-0.2,0.4c-0.1,0.1-0.3,0.2-0.6,0.2c-0.3,0-0.6,0.1-1.1,0.1
			c-0.5,0-0.9,0-1.2-0.1c-0.2,0-0.4-0.1-0.5-0.2c-0.1-0.1-0.2-0.2-0.2-0.4v-1.3c-0.7,0.7-1.4,1.3-2.3,1.7c-0.8,0.4-1.8,0.6-2.8,0.6
			c-0.9,0-1.6-0.1-2.4-0.3c-0.7-0.2-1.3-0.6-1.9-1c-0.5-0.4-0.9-1-1.2-1.6c-0.3-0.7-0.4-1.4-0.4-2.3c0-0.9,0.2-1.8,0.6-2.4
			c0.4-0.7,0.9-1.3,1.6-1.7c0.7-0.5,1.6-0.8,2.7-1c1.1-0.2,2.3-0.3,3.8-0.3h1.6v-1c0-0.5-0.1-0.9-0.2-1.3c-0.1-0.4-0.3-0.7-0.5-0.9
			c-0.2-0.3-0.5-0.4-0.9-0.6c-0.4-0.1-0.9-0.2-1.5-0.2c-0.8,0-1.4,0.1-2,0.3c-0.6,0.2-1.1,0.4-1.6,0.6c-0.5,0.2-0.8,0.4-1.1,0.6
			c-0.3,0.2-0.6,0.3-0.8,0.3c-0.1,0-0.3,0-0.4-0.1c-0.1-0.1-0.2-0.2-0.3-0.4c-0.1-0.2-0.1-0.3-0.2-0.6c0-0.2-0.1-0.5-0.1-0.8
			c0-0.4,0-0.7,0.1-0.9c0.1-0.2,0.2-0.4,0.3-0.6c0.2-0.2,0.5-0.4,0.9-0.6c0.4-0.2,0.9-0.4,1.5-0.6c0.6-0.2,1.2-0.3,1.9-0.4
			c0.7-0.1,1.4-0.2,2.1-0.2c1.3,0,2.3,0.1,3.2,0.4c0.9,0.2,1.6,0.6,2.2,1.1c0.6,0.5,1,1.2,1.3,2c0.3,0.8,0.4,1.8,0.4,2.9V491.6z"/>
	</g>
	<g id="Util" class="st2">
		<path class="st9" d="M258.5,452H179c-3.9,0-7,3.1-7,7v34c0,3.9,3.1,7,7,7h79.5c3.9,0,7-3.1,7-7v-34
			C265.5,455.2,262.3,452,258.5,452z M215.9,480.2c0,2.1-0.3,4-0.9,5.7c-0.6,1.7-1.5,3.1-2.8,4.3c-1.2,1.2-2.7,2-4.5,2.7
			c-1.8,0.6-3.8,0.9-6.2,0.9c-2.2,0-4.1-0.3-5.9-0.8c-1.7-0.5-3.2-1.4-4.4-2.5c-1.2-1.1-2.1-2.5-2.8-4.1c-0.6-1.7-1-3.6-1-5.8v-21.1
			c0-0.2,0.1-0.3,0.2-0.5c0.1-0.1,0.3-0.3,0.6-0.3c0.3-0.1,0.6-0.2,1.1-0.2c0.4-0.1,1-0.1,1.7-0.1c0.7,0,1.2,0,1.7,0.1
			c0.4,0.1,0.8,0.1,1.1,0.2c0.3,0.1,0.5,0.2,0.6,0.3c0.1,0.1,0.2,0.3,0.2,0.5v20.5c0,1.4,0.2,2.6,0.5,3.6c0.3,1,0.8,1.8,1.5,2.5
			c0.6,0.7,1.4,1.2,2.3,1.5c0.9,0.3,1.9,0.5,3,0.5c1.1,0,2.1-0.2,3-0.5c0.9-0.3,1.6-0.8,2.2-1.5c0.6-0.7,1.1-1.5,1.4-2.4
			c0.3-1,0.5-2,0.5-3.3v-20.9c0-0.2,0.1-0.3,0.2-0.5c0.1-0.1,0.3-0.3,0.6-0.3c0.3-0.1,0.6-0.2,1.1-0.2c0.5-0.1,1-0.1,1.7-0.1
			c0.7,0,1.2,0,1.7,0.1c0.4,0.1,0.8,0.1,1.1,0.2c0.3,0.1,0.5,0.2,0.6,0.3c0.1,0.1,0.2,0.3,0.2,0.5V480.2z M239,491.5
			c0,0.1,0,0.2-0.1,0.3c-0.1,0.1-0.2,0.2-0.4,0.2c-0.2,0.1-0.4,0.1-0.7,0.1c-0.3,0-0.7,0-1.1,0c-0.4,0-0.8,0-1.1,0
			c-0.3,0-0.5-0.1-0.7-0.1c-0.2-0.1-0.3-0.1-0.4-0.2c-0.1-0.1-0.1-0.2-0.1-0.3v-13h-7.2v7.6c0,0.9,0.1,1.5,0.4,2
			c0.3,0.4,0.8,0.7,1.5,0.7c0.2,0,0.5,0,0.7-0.1c0.2,0,0.4-0.1,0.5-0.1c0.2-0.1,0.3-0.1,0.4-0.1c0.1,0,0.2-0.1,0.3-0.1
			c0.1,0,0.1,0,0.2,0.1c0.1,0,0.1,0.1,0.2,0.3c0,0.1,0.1,0.3,0.1,0.5c0,0.2,0,0.5,0,0.8c0,0.5,0,0.9-0.1,1.2
			c-0.1,0.3-0.1,0.5-0.3,0.6c-0.1,0.1-0.3,0.2-0.5,0.3c-0.2,0.1-0.5,0.2-0.8,0.2c-0.3,0.1-0.6,0.1-0.9,0.2c-0.3,0-0.7,0.1-1,0.1
			c-0.9,0-1.7-0.1-2.3-0.3c-0.7-0.2-1.2-0.6-1.6-1.1c-0.4-0.5-0.8-1.1-1-1.8c-0.2-0.7-0.3-1.6-0.3-2.6v-8.3h-1.9
			c-0.2,0-0.4-0.1-0.5-0.4c-0.1-0.3-0.2-0.8-0.2-1.4c0-0.3,0-0.6,0-0.9c0-0.2,0.1-0.4,0.1-0.6c0.1-0.1,0.1-0.2,0.2-0.3
			c0.1-0.1,0.2-0.1,0.3-0.1h1.9v-3.6c0-0.1,0-0.2,0.1-0.3c0.1-0.1,0.2-0.2,0.4-0.2c0.2-0.1,0.4-0.1,0.7-0.1c0.3,0,0.7,0,1.1,0
			c0.4,0,0.8,0,1.1,0c0.3,0,0.5,0.1,0.7,0.1c0.2,0.1,0.3,0.1,0.4,0.2c0.1,0.1,0.1,0.2,0.1,0.3v3.6h10.4c0.5,0,0.9,0.1,1.1,0.3
			c0.2,0.2,0.3,0.5,0.3,0.9V491.5z M238.8,471.9c-0.4,0.3-1.1,0.5-2.1,0.5c-1,0-1.7-0.2-2.1-0.5c-0.4-0.3-0.5-0.9-0.5-1.8
			c0-0.9,0.2-1.6,0.6-1.9c0.4-0.4,1.1-0.5,2.1-0.5c1,0,1.7,0.2,2.1,0.5c0.4,0.3,0.5,1,0.5,1.8C239.4,470.9,239.2,471.5,238.8,471.9z
			 M250.9,491.5c0,0.1,0,0.2-0.1,0.3c-0.1,0.1-0.2,0.2-0.4,0.2c-0.2,0.1-0.4,0.1-0.7,0.1c-0.3,0-0.7,0-1.1,0c-0.4,0-0.8,0-1.1,0
			c-0.3,0-0.5-0.1-0.7-0.1c-0.2-0.1-0.3-0.1-0.4-0.2c-0.1-0.1-0.1-0.2-0.1-0.3v-23.8c0-0.1,0-0.2,0.1-0.3c0.1-0.1,0.2-0.2,0.4-0.2
			c0.2-0.1,0.4-0.1,0.7-0.2c0.3,0,0.7-0.1,1.1-0.1c0.4,0,0.8,0,1.1,0.1c0.3,0,0.5,0.1,0.7,0.2c0.2,0.1,0.3,0.1,0.4,0.2
			c0.1,0.1,0.1,0.2,0.1,0.3V491.5z"/>
	</g>
	<g id="SC_copy" class="st2">
		<path class="st9" d="M258.5,452H179c-3.9,0-7,3.1-7,7v34c0,3.9,3.1,7,7,7h79.5c3.9,0,7-3.1,7-7v-34
			C265.5,455.2,262.3,452,258.5,452z M209.3,487.5c-0.7,1.4-1.6,2.5-2.8,3.5c-1.2,0.9-2.5,1.6-4.1,2.1c-1.6,0.5-3.2,0.7-5,0.7
			c-1.2,0-2.3-0.1-3.3-0.3c-1-0.2-1.9-0.4-2.7-0.7c-0.8-0.3-1.4-0.6-2-0.9c-0.5-0.3-0.9-0.6-1.1-0.8c-0.2-0.2-0.4-0.6-0.5-1
			c-0.1-0.4-0.1-1.1-0.1-1.9c0-0.6,0-1,0.1-1.4c0-0.4,0.1-0.7,0.2-0.9c0.1-0.2,0.2-0.4,0.3-0.5c0.1-0.1,0.3-0.1,0.5-0.1
			c0.3,0,0.6,0.1,1.1,0.4c0.5,0.3,1,0.6,1.8,1c0.7,0.4,1.6,0.7,2.6,1c1,0.3,2.1,0.4,3.5,0.4c0.9,0,1.6-0.1,2.3-0.3
			c0.7-0.2,1.3-0.5,1.7-0.9c0.5-0.4,0.8-0.8,1.1-1.4c0.3-0.6,0.4-1.2,0.4-1.9c0-0.8-0.2-1.5-0.6-2c-0.4-0.6-1-1.1-1.7-1.5
			c-0.7-0.4-1.5-0.8-2.3-1.2c-0.9-0.4-1.8-0.8-2.7-1.2c-0.9-0.4-1.8-0.9-2.7-1.5c-0.9-0.5-1.7-1.2-2.3-2c-0.7-0.8-1.2-1.7-1.7-2.7
			c-0.4-1-0.6-2.3-0.6-3.7c0-1.7,0.3-3.1,0.9-4.4c0.6-1.3,1.5-2.3,2.5-3.1c1-0.8,2.3-1.5,3.7-1.9c1.4-0.4,2.9-0.6,4.5-0.6
			c0.8,0,1.6,0.1,2.5,0.2c0.8,0.1,1.6,0.3,2.3,0.5c0.7,0.2,1.4,0.5,1.9,0.7c0.6,0.3,0.9,0.5,1.1,0.7c0.2,0.2,0.3,0.3,0.4,0.5
			c0.1,0.1,0.1,0.3,0.2,0.5c0,0.2,0.1,0.5,0.1,0.8c0,0.3,0,0.7,0,1.2c0,0.5,0,1,0,1.3c0,0.4-0.1,0.7-0.1,0.9
			c-0.1,0.2-0.2,0.4-0.3,0.5c-0.1,0.1-0.3,0.2-0.5,0.2c-0.2,0-0.5-0.1-0.9-0.4c-0.4-0.3-1-0.5-1.6-0.8c-0.6-0.3-1.4-0.6-2.2-0.8
			c-0.8-0.2-1.7-0.4-2.7-0.4c-0.8,0-1.4,0.1-2,0.3c-0.6,0.2-1.1,0.4-1.4,0.8c-0.4,0.3-0.7,0.7-0.9,1.2c-0.2,0.5-0.3,1-0.3,1.5
			c0,0.8,0.2,1.4,0.6,2c0.4,0.6,1,1.1,1.7,1.5c0.7,0.4,1.5,0.8,2.4,1.2c0.9,0.4,1.8,0.8,2.7,1.2c0.9,0.4,1.8,0.9,2.7,1.5
			c0.9,0.5,1.7,1.2,2.4,2c0.7,0.8,1.3,1.7,1.7,2.7s0.6,2.2,0.6,3.6C210.3,484.5,210,486.2,209.3,487.5z M250.7,489
			c0,0.3-0.1,0.6-0.1,0.8c-0.1,0.2-0.1,0.4-0.2,0.6c-0.1,0.2-0.2,0.3-0.4,0.5c-0.2,0.2-0.6,0.5-1.1,0.8c-0.6,0.3-1.3,0.6-2.1,0.9
			c-0.8,0.3-1.7,0.5-2.8,0.7c-1,0.2-2.2,0.3-3.4,0.3c-2.4,0-4.5-0.4-6.4-1.1c-1.9-0.7-3.5-1.8-4.9-3.3c-1.3-1.5-2.4-3.3-3.1-5.5
			c-0.7-2.2-1.1-4.7-1.1-7.6c0-3,0.4-5.6,1.2-7.9c0.8-2.3,1.9-4.2,3.3-5.8c1.4-1.6,3.1-2.7,5.1-3.5c2-0.8,4.2-1.2,6.5-1.2
			c1,0,1.9,0.1,2.8,0.2c0.9,0.2,1.7,0.4,2.5,0.6c0.8,0.3,1.4,0.6,2.1,0.9c0.6,0.3,1,0.6,1.3,0.9c0.2,0.2,0.4,0.4,0.5,0.6
			c0.1,0.2,0.2,0.4,0.2,0.6c0.1,0.3,0.1,0.5,0.1,0.9c0,0.3,0,0.8,0,1.3c0,0.5,0,1-0.1,1.4c0,0.4-0.1,0.7-0.2,0.9
			c-0.1,0.2-0.2,0.4-0.3,0.5c-0.1,0.1-0.3,0.2-0.4,0.2c-0.3,0-0.6-0.2-1-0.5c-0.4-0.3-0.9-0.7-1.6-1c-0.7-0.4-1.4-0.7-2.3-1
			c-0.9-0.3-2-0.5-3.2-0.5c-1.4,0-2.6,0.3-3.7,0.8c-1.1,0.6-2,1.4-2.8,2.4c-0.8,1-1.3,2.3-1.7,3.8c-0.4,1.5-0.6,3.2-0.6,5
			c0,2,0.2,3.8,0.6,5.3c0.4,1.5,1,2.7,1.8,3.7c0.8,1,1.7,1.7,2.8,2.2c1.1,0.5,2.3,0.7,3.7,0.7c1.3,0,2.3-0.1,3.2-0.4
			c0.9-0.3,1.7-0.6,2.4-1c0.7-0.4,1.2-0.7,1.6-1c0.4-0.3,0.7-0.4,1-0.4c0.2,0,0.3,0,0.4,0.1c0.1,0.1,0.2,0.2,0.3,0.4
			c0.1,0.2,0.1,0.5,0.2,0.9c0,0.4,0.1,0.9,0.1,1.5C250.7,488.3,250.7,488.7,250.7,489z"/>
	</g>
	<g id="TF" class="st2">
		<g class="st3">
			<path class="st10" d="M258.5,452H179c-3.9,0-7,3.1-7,7v34c0,3.9,3.1,7,7,7h79.5c3.9,0,7-3.1,7-7v-34
				C265.5,455.2,262.3,452,258.5,452z M214.1,462.6c0,0.4-0.1,0.7-0.2,0.9c-0.1,0.2-0.2,0.4-0.3,0.5c-0.1,0.1-0.3,0.2-0.4,0.2h-8.7
				v28c0,0.2-0.1,0.3-0.2,0.5c-0.1,0.1-0.3,0.3-0.6,0.3c-0.3,0.1-0.6,0.2-1.1,0.2c-0.5,0.1-1,0.1-1.7,0.1c-0.7,0-1.2,0-1.7-0.1
				c-0.5-0.1-0.8-0.1-1.1-0.2c-0.3-0.1-0.5-0.2-0.6-0.3c-0.1-0.1-0.2-0.3-0.2-0.5v-28h-8.7c-0.2,0-0.3-0.1-0.5-0.2
				c-0.1-0.1-0.2-0.3-0.3-0.5c-0.1-0.2-0.2-0.5-0.2-0.9c0-0.4-0.1-0.8-0.1-1.3c0-0.5,0-1,0.1-1.4c0-0.4,0.1-0.7,0.2-0.9
				c0.1-0.2,0.2-0.4,0.3-0.5c0.1-0.1,0.3-0.1,0.5-0.1h24.5c0.2,0,0.3,0,0.4,0.1c0.1,0.1,0.2,0.3,0.3,0.5c0.1,0.2,0.2,0.5,0.2,0.9
				c0,0.4,0.1,0.8,0.1,1.4C214.1,461.8,214.1,462.3,214.1,462.6z M248.7,462.6c0,0.4-0.1,0.7-0.2,0.9c-0.1,0.2-0.2,0.4-0.3,0.5
				c-0.1,0.1-0.3,0.2-0.4,0.2h-11.4v9.3H247c0.2,0,0.3,0,0.4,0.1c0.1,0.1,0.2,0.2,0.3,0.5c0.1,0.2,0.2,0.5,0.2,0.9
				c0,0.4,0.1,0.8,0.1,1.3s0,1-0.1,1.3c0,0.4-0.1,0.7-0.2,0.9c-0.1,0.2-0.2,0.4-0.3,0.5c-0.1,0.1-0.3,0.1-0.4,0.1h-10.7v12.9
				c0,0.2-0.1,0.4-0.2,0.5c-0.1,0.1-0.3,0.3-0.6,0.4c-0.3,0.1-0.6,0.2-1.1,0.2c-0.4,0.1-1,0.1-1.7,0.1c-0.7,0-1.2,0-1.7-0.1
				c-0.5-0.1-0.8-0.1-1.1-0.2c-0.3-0.1-0.5-0.2-0.6-0.4c-0.1-0.1-0.2-0.3-0.2-0.5v-31.5c0-0.8,0.2-1.4,0.6-1.7
				c0.4-0.3,0.9-0.5,1.5-0.5h16.4c0.2,0,0.3,0,0.4,0.1c0.1,0.1,0.2,0.3,0.3,0.5c0.1,0.2,0.2,0.5,0.2,0.9c0,0.4,0.1,0.8,0.1,1.4
				S248.7,462.3,248.7,462.6z"/>
		</g>
	</g>
	<g id="TA" class="st2">
		<g class="st3">
			<g>
				<path class="st10" d="M258.5,452H179c-3.9,0-7,3.1-7,7v34c0,3.9,3.1,7,7,7h79.5c3.9,0,7-3.1,7-7v-34
					C265.5,455.2,262.3,452,258.5,452z M212.2,462.6c0,0.4-0.1,0.7-0.2,0.9c-0.1,0.2-0.2,0.4-0.3,0.5c-0.1,0.1-0.3,0.2-0.4,0.2h-8.7
					v28c0,0.2-0.1,0.3-0.2,0.5c-0.1,0.1-0.3,0.3-0.6,0.3c-0.3,0.1-0.6,0.2-1.1,0.2c-0.5,0.1-1,0.1-1.7,0.1c-0.7,0-1.2,0-1.7-0.1
					c-0.5-0.1-0.8-0.1-1.1-0.2c-0.3-0.1-0.5-0.2-0.6-0.3c-0.1-0.1-0.2-0.3-0.2-0.5v-28h-8.7c-0.2,0-0.3-0.1-0.5-0.2
					c-0.1-0.1-0.2-0.3-0.3-0.5c-0.1-0.2-0.2-0.5-0.2-0.9c0-0.4-0.1-0.8-0.1-1.3c0-0.5,0-1,0.1-1.4c0-0.4,0.1-0.7,0.2-0.9
					c0.1-0.2,0.2-0.4,0.3-0.5c0.1-0.1,0.3-0.1,0.5-0.1h24.5c0.2,0,0.3,0,0.4,0.1c0.1,0.1,0.2,0.3,0.3,0.5c0.1,0.2,0.2,0.5,0.2,0.9
					c0,0.4,0.1,0.8,0.1,1.4C212.3,461.8,212.2,462.3,212.2,462.6z M251.7,492.9c-0.2,0.2-0.5,0.3-1,0.3c-0.5,0-1.2,0.1-2.1,0.1
					c-0.9,0-1.6,0-2.1,0c-0.5,0-0.9-0.1-1.2-0.2c-0.3-0.1-0.5-0.2-0.6-0.3s-0.2-0.3-0.3-0.6l-2.3-7h-13.1l-2.2,6.8
					c-0.1,0.3-0.2,0.5-0.3,0.6c-0.1,0.2-0.3,0.3-0.6,0.4c-0.3,0.1-0.6,0.2-1.1,0.2c-0.5,0-1.1,0.1-1.9,0.1c-0.8,0-1.5,0-1.9-0.1
					c-0.5-0.1-0.8-0.2-1-0.4c-0.2-0.2-0.2-0.5-0.2-0.9s0.2-0.9,0.4-1.5l10.7-30.8c0.1-0.3,0.2-0.6,0.4-0.7c0.1-0.2,0.4-0.3,0.7-0.4
					c0.3-0.1,0.7-0.2,1.3-0.2c0.6,0,1.3,0,2.2,0c1.1,0,1.9,0,2.5,0c0.6,0,1.1,0.1,1.5,0.2c0.3,0.1,0.6,0.2,0.8,0.4
					c0.2,0.2,0.3,0.5,0.4,0.8l10.7,30.8c0.2,0.6,0.3,1.2,0.4,1.5S251.9,492.7,251.7,492.9z M235.5,465l-4.9,14.8h9.9L235.5,465
					L235.5,465z"/>
			</g>
		</g>
	</g>
	<g id="TM_copy" class="st2">
		<path class="st9" d="M258.5,452H179c-3.9,0-7,3.1-7,7v34c0,3.9,3.1,7,7,7h79.5c3.9,0,7-3.1,7-7v-34
			C265.5,455.2,262.3,452,258.5,452z M205.4,462.6c0,0.4-0.1,0.7-0.2,0.9c-0.1,0.2-0.2,0.4-0.3,0.5c-0.1,0.1-0.3,0.2-0.4,0.2h-8.7
			v28c0,0.2-0.1,0.3-0.2,0.5c-0.1,0.1-0.3,0.3-0.6,0.3c-0.3,0.1-0.6,0.2-1.1,0.2c-0.5,0.1-1,0.1-1.7,0.1c-0.7,0-1.2,0-1.7-0.1
			c-0.5-0.1-0.8-0.1-1.1-0.2c-0.3-0.1-0.5-0.2-0.6-0.3c-0.1-0.1-0.2-0.3-0.2-0.5v-28h-8.7c-0.2,0-0.3-0.1-0.5-0.2
			c-0.1-0.1-0.2-0.3-0.3-0.5c-0.1-0.2-0.2-0.5-0.2-0.9c0-0.4-0.1-0.8-0.1-1.3c0-0.5,0-1,0.1-1.4c0-0.4,0.1-0.7,0.2-0.9
			c0.1-0.2,0.2-0.4,0.3-0.5c0.1-0.1,0.3-0.1,0.5-0.1h24.5c0.2,0,0.3,0,0.4,0.1c0.1,0.1,0.2,0.3,0.3,0.5c0.1,0.2,0.2,0.5,0.2,0.9
			c0,0.4,0.1,0.8,0.1,1.4C205.5,461.8,205.5,462.3,205.4,462.6z M255.6,492.2c0,0.2,0,0.3-0.1,0.5c-0.1,0.1-0.3,0.3-0.5,0.3
			c-0.3,0.1-0.6,0.2-1,0.2c-0.4,0.1-1,0.1-1.6,0.1c-0.6,0-1.2,0-1.6-0.1c-0.4-0.1-0.8-0.1-1-0.2c-0.3-0.1-0.4-0.2-0.5-0.3
			c-0.1-0.1-0.2-0.3-0.2-0.5v-28.3h-0.1l-10.1,28.3c-0.1,0.2-0.2,0.4-0.3,0.6c-0.2,0.2-0.4,0.3-0.7,0.4c-0.3,0.1-0.6,0.1-1.1,0.2
			c-0.4,0-0.9,0-1.6,0c-0.6,0-1.1,0-1.6-0.1c-0.4,0-0.8-0.1-1.1-0.2c-0.3-0.1-0.5-0.2-0.7-0.4c-0.2-0.1-0.3-0.3-0.3-0.5l-9.7-28.3
			h-0.1v28.3c0,0.2,0,0.3-0.1,0.5c-0.1,0.1-0.3,0.3-0.6,0.3c-0.3,0.1-0.6,0.2-1,0.2c-0.4,0.1-1,0.1-1.6,0.1c-0.6,0-1.2,0-1.6-0.1
			c-0.4-0.1-0.8-0.1-1-0.2c-0.3-0.1-0.4-0.2-0.5-0.3c-0.1-0.1-0.1-0.3-0.1-0.5v-31c0-0.9,0.2-1.6,0.7-2.1c0.5-0.5,1.1-0.7,1.9-0.7
			h4.6c0.8,0,1.5,0.1,2.1,0.2c0.6,0.1,1.1,0.4,1.5,0.7c0.4,0.3,0.8,0.7,1.1,1.2c0.3,0.5,0.5,1.1,0.8,1.9l7.5,20.7h0.1l7.8-20.7
			c0.2-0.8,0.5-1.4,0.8-1.9c0.3-0.5,0.6-0.9,1-1.3c0.4-0.3,0.8-0.6,1.3-0.7c0.5-0.1,1.1-0.2,1.7-0.2h4.8c0.5,0,0.9,0.1,1.2,0.2
			c0.3,0.1,0.6,0.3,0.9,0.6c0.2,0.2,0.4,0.5,0.5,0.9c0.1,0.3,0.2,0.7,0.2,1.2V492.2z"/>
	</g>
</g>
</svg>
